[
    {
        "name_fr": "Potion de vie I",
        "name_en": "Life potion I",
        "effect": "+life:10%",
        "min_price": 20,
        "max_price": 30,
        "thumbnail": "items/potion-vie.svg",
        "desc_fr": "Regénère 10% de votre vie",
        "desc_en": "Regenerates 10% of your life"
    },
    {
        "name_fr": "Potion de vie II",
        "name_en": "Life potion II",
        "effect": "+life:25%",
        "min_price": 30,
        "max_price": 40,
        "thumbnail": "items/potion-vie.svg",
        "desc_fr": "Regénère 25% de votre vie",
        "desc_en": "Regenerates 25% of your life"
    },
    {
        "name_fr": "Potion de vie III",
        "name_en": "Life potion III",
        "effect": "+life:50%",
        "min_price": 40,
        "max_price": 50,
        "thumbnail": "items/potion-vie.svg",
        "desc_fr": "Regénère 50% de votre vie",
        "desc_en": "Regenerates 50% of your life"
    },
    {
        "name_fr": "Potion de vie IV",
        "name_en": "Life potion IV",
        "effect": "+life:75%",
        "min_price": 60,
        "max_price": 75,
        "thumbnail": "items/potion-vie.svg",
        "desc_fr": "Regénère 75% de votre vie",
        "desc_en": "Regenerates 75% of your life"
    },
    {
        "name_fr": "Potion de vie V",
        "name_en": "Life potion V",
        "effect": "+life:100%",
        "min_price": 100,
        "max_price": 150,
        "thumbnail": "items/potion-vie.svg",
        "desc_fr": "Regénère 100% de votre vie",
        "desc_en": "Regenerates 100% of your life"
    },
    {
        "name_fr": "Hamburger",
        "name_en": "Burger",
        "effect": "+max_life:10",
        "min_price": 20,
        "max_price": 50,
        "thumbnail": "items/burger.svg",
        "desc_fr": "Augmente votre vie maximal de 10",
        "desc_en": "Increases your maximum life by 10"
    },
    {
        "name_fr": "Canette de force",
        "name_en": "Power can",
        "effect": "+force:1",
        "min_price": 20,
        "max_price": 50,
        "thumbnail": "items/fizz.svg",
        "desc_fr": "Augmente votre attaque de 1",
        "desc_en": "Increases your attack by 1"
    },
    {
        "name_fr": "Elixir de prospérité",
        "name_en": "Elixir of prosperity",
        "effect": "+shardz:1",
        "min_price": 50,
        "max_price": 75,
        "thumbnail": "items/fiole.svg",
        "desc_fr": "Augmente votre production de shardz de 1",
        "desc_en": "Increases your shardz production by 1"
    },
    {
        "name_fr": "Quintessence explosive",
        "name_en": "Explosive quintessence",
        "effect": "+degats_instant:100",
        "min_price": 50,
        "max_price": 75,
        "thumbnail": "items/mortar.svg",
        "desc_fr": "Inflige 100 points de dégats au monstre",
        "desc_en": "Inflicts 100 points of damage to the monster"
    },
    {
        "name_fr": "Potion de vitesse",
        "name_en": "Speed potion",
        "effect": "+clic:2:20",
        "min_price": 50,
        "max_price": 75,
        "thumbnail": "items/potion-rond.svg",
        "desc_fr": "Tous vos clics compteront double pendant 20 secondes",
        "desc_en": "All your clicks will count double for 20 seconds"
    },
    {
        "name_fr": "Philtre de l'oubli",
        "name_en": "Filter of oblivion",
        "effect": "+rollback:5",
        "min_price": 100,
        "max_price": 150,
        "thumbnail": "items/filtre-oublie.svg",
        "desc_fr": "Redescend votre progression de 5 étages et la difficulté avec",
        "desc_en": "Reduces your progress by 5 floors and the difficulty with"
    },
    {
        "name_fr": "Elixir de chance",
        "name_en": "Luck elixir",
        "effect": "+chance:5",
        "min_price": 40,
        "max_price": 50,
        "thumbnail": "items/potion-longue.svg",
        "desc_fr": "Augmente de manière permanente votre chance de 5%",
        "desc_en": "Permanently increases your chance of success by 5%"
    },
    {
        "name_fr": "Goutte de vampire",
        "name_en": "Vampire drop",
        "effect": "+vamp:30",
        "min_price": 35,
        "max_price": 60,
        "thumbnail": "items/drop.svg",
        "desc_fr": "Prend 30 points de vie au monstre pour vous les donner",
        "desc_en": "Takes 30 health points from the monster and gives them to you"
    },
    {
        "name_fr": "Elixir de prevoyance",
        "name_en": "Elixir of foresight",
        "effect": "+refresh",
        "min_price": 5,
        "max_price": 80,
        "thumbnail": "items/potion-rectangle.svg",
        "desc_fr": "Rafraichi le marché gratuitement",
        "desc_en": "Refresh the market for free"
    },
    {
        "name_fr": "Potion d'immortalité",
        "name_en": "Immortality potion",
        "effect": "+immortality:20",
        "min_price": 60,
        "max_price": 90,
        "thumbnail": "items/immortality.svg",
        "desc_fr": "Vous confère le pouvoir ultime de l'immortalité pendant 20 secondes",
        "desc_en": "Grant you immortality for 20 secs"
    }
]